<?xml version="1.0" encoding="UTF-8"?>
<svg width="7px" height="11px" viewBox="0 0 7 11" version="1.1" xmlns="http://www.w3.org/2000/svg" xmlns:xlink="http://www.w3.org/1999/xlink">
    <!-- Generator: Sketch 50 (54983) - http://www.bohemiancoding.com/sketch -->
    <title>Combined shape 405</title>
    <desc>Created with Sketch.</desc>
    <defs></defs>
    <g id="Page-1" stroke="none" stroke-width="1" fill="none" fill-rule="evenodd">
        <g id="main" transform="translate(-1241.000000, -1664.000000)" fill="#000000">
            <g id="шины" transform="translate(122.000000, 975.000000)">
                <g transform="translate(0.000000, 178.000000)" id="4">
                    <g transform="translate(901.000000, 0.000000)">
                        <g id="Group-2-copy">
                            <g id="button-copy" transform="translate(63.000000, 490.000000)">
                                <path d="M159.863475,26.4937053 L160.490164,27.057865 C160.836488,27.369145 161.397477,27.369145 161.743383,27.05761 C161.887842,26.9276467 161.972014,26.7638426 161.99588,26.594456 C161.97218,26.7640009 161.887985,26.9279685 161.743383,27.058105 L156.521782,31.75855 C156.175975,32.07007 155.614634,32.07007 155.268486,31.758295 C154.922151,31.446775 154.922327,30.94189 155.268739,30.63013 L159.863475,26.4937053 L155.268739,22.35742 C154.922327,22.04566 154.922327,21.540775 155.268739,21.229 C155.614469,20.91772 156.175623,20.91748 156.521782,21.229 L161.743636,25.929685 C161.90214,26.0723271 161.987976,26.2557278 162.001167,26.4425308 Z" id="Combined-shape-405"></path>
                            </g>
                        </g>
                    </g>
                </g>
            </g>
        </g>
    </g>
</svg>