<?xml version="1.0" encoding="UTF-8"?>
<svg width="45px" height="45px" viewBox="0 0 45 45" version="1.1" xmlns="http://www.w3.org/2000/svg" xmlns:xlink="http://www.w3.org/1999/xlink">
    <!-- Generator: Sketch 50 (54983) - http://www.bohemiancoding.com/sketch -->
    <title>Group 4</title>
    <desc>Created with Sketch.</desc>
    <defs></defs>
    <g id="Page-1" stroke="none" stroke-width="1" fill="none" fill-rule="evenodd">
        <g id="main" transform="translate(-583.000000, -976.000000)">
            <g id="шины" transform="translate(122.000000, 975.000000)">
                <g id="летние-шины" transform="translate(402.000000, 0.000000)">
                    <g id="Group-4" transform="translate(57.000000, 0.000000)">
                        <path d="M24.499824,1.500019 C12.3495726,1.500019 2.499872,11.3496821 2.499872,23.5 C2.499872,35.6501648 12.3496546,45.499981 24.499824,45.499981 C36.6500436,45.499981 46.499872,35.6501626 46.499872,23.5 C46.499872,11.3496844 36.6501256,1.500019 24.499824,1.500019 Z" id="Ellipse-2-copy" stroke="#DADADA" fill-opacity="0" fill="#CCE3E8"></path>
                        <path d="M24.4998,15.169199 C29.10057,15.169199 32.83062,18.898918 32.83062,23.5 C32.83062,28.100821 29.10057,31.830569 24.4998,31.830569 C19.89894,31.830569 16.16916,28.100821 16.16916,23.5 C16.16916,18.898918 19.89894,15.169199 24.4998,15.169199 Z M24.4998,10.000007 L26.38524,13.011483 L22.61436,13.011483 L24.4998,10.000007 Z M17.74983,11.808592 L20.88873,13.47412 L17.62278,15.359613 L17.74983,11.808592 Z M16.35963,16.622563 L14.47419,19.888659 L12.80847,16.749989 L16.35963,16.622563 Z M14.0118,21.614246 L14.0118,25.385493 L10.99974,23.5 L14.0118,21.614246 Z M12.80847,30.250011 L14.47419,27.11108 L16.35963,30.376712 L12.80847,30.250011 Z M17.74983,35.191176 L17.62278,31.640126 L20.88873,33.525648 L17.74983,35.191176 Z M24.4998,36.999993 L22.61436,33.987792 L26.38524,33.987792 L24.4998,36.999993 Z M31.24986,35.191176 L28.11078,33.525648 L31.37673,31.640126 L31.24986,35.191176 Z M32.63991,30.376712 L34.52559,27.11108 L36.19107,30.250011 L32.63991,30.376712 Z M34.98813,25.385493 L34.98813,21.614246 L37.99986,23.5 L34.98813,25.385493 Z M36.19107,16.749989 L34.52559,19.888659 L32.63991,16.622563 L36.19107,16.749989 Z M31.24986,11.808592 L31.37673,15.359613 L28.11078,13.47412 L31.24986,11.808592 Z" id="Combined-shape-168" fill="#DADADA"></path>
                    </g>
                </g>
            </g>
        </g>
    </g>
</svg>